<?xml version="1.0" standalone="no"?>
<!DOCTYPE svg PUBLIC "-//W3C//DTD SVG 20010904//EN"
 "http://www.w3.org/TR/2001/REC-SVG-20010904/DTD/svg10.dtd">
<svg version="1.0" xmlns="http://www.w3.org/2000/svg"
 width="150.000000pt" height="150.000000pt" viewBox="0 0 150.000000 150.000000"
 preserveAspectRatio="xMidYMid meet">
<metadata>
Created by potrace 1.14, written by Peter Selinger 2001-2017
</metadata>
<g transform="translate(0.000000,150.000000) scale(0.100000,-0.100000)"
fill="#000000" stroke="none">
<path d="M636 1442 c-2 -1 -28 -7 -59 -12 -30 -6 -77 -22 -104 -37 -26 -14
-75 -40 -108 -57 -33 -17 -71 -42 -85 -56 -58 -60 -140 -154 -140 -161 0 -4
-11 -20 -25 -35 -13 -14 -24 -29 -23 -33 0 -3 -1 -9 -2 -13 -1 -5 -3 -11 -5
-15 -1 -5 -7 -21 -13 -36 -7 -16 -12 -38 -12 -51 0 -12 -5 -27 -11 -33 -6 -6
-13 -68 -16 -146 -5 -119 -3 -144 16 -201 12 -36 21 -74 21 -84 0 -11 6 -25
14 -31 7 -6 16 -24 19 -39 6 -28 23 -53 70 -105 15 -16 27 -33 27 -37 0 -27
223 -195 242 -184 4 3 8 1 8 -3 0 -5 9 -14 21 -21 17 -11 20 -11 13 0 -6 10
-5 10 7 2 8 -6 32 -15 54 -19 22 -5 47 -10 55 -12 8 -1 62 -3 120 -4 96 -1
222 18 254 38 6 4 22 9 36 11 14 2 29 10 33 18 5 8 12 12 17 9 4 -3 15 7 25
21 9 14 19 23 22 20 6 -6 114 79 126 100 5 8 14 11 20 8 7 -4 9 -4 5 1 -4 4 7
25 25 45 55 63 68 82 72 99 1 9 15 42 29 73 43 94 59 180 51 283 -8 112 -12
149 -15 153 -1 1 -4 11 -5 22 -1 11 -3 21 -5 23 -1 1 -3 9 -5 17 -7 34 -67
150 -81 158 -9 5 -16 13 -17 18 -4 28 -178 205 -227 232 -23 12 -38 16 -34 9
4 -7 -2 -4 -14 6 -11 11 -26 16 -31 12 -6 -3 -11 -2 -11 3 0 9 -51 25 -116 37
-11 2 -21 4 -24 6 -7 3 -211 4 -214 1z"/>
</g>
</svg>
